%YAML 1.1
%TAG !u! tag:unity3d.com,2011:
--- !u!1001 &6981568124451974843
PrefabInstance:
  m_ObjectHideFlags: 0
  serializedVersion: 2
  m_Modification:
    serializedVersion: 3
    m_TransformParent: {fileID: 0}
    m_Modifications:
    - target: {fileID: -8653719598885068355, guid: ede9e1a400a9d4e49b8e611cd2b74ebe, type: 3}
      propertyPath: m_Name
      value: ing4
      objectReference: {fileID: 0}
    - target: {fileID: -7552582706839291426, guid: ede9e1a400a9d4e49b8e611cd2b74ebe, type: 3}
      propertyPath: m_LocalPosition.x
      value: 11.81722
      objectReference: {fileID: 0}
    - target: {fileID: -7552582706839291426, guid: ede9e1a400a9d4e49b8e611cd2b74ebe, type: 3}
      propertyPath: m_LocalPosition.y
      value: -70.44855
      objectReference: {fileID: 0}
    - target: {fileID: -7552582706839291426, guid: ede9e1a400a9d4e49b8e611cd2b74ebe, type: 3}
      propertyPath: m_LocalPosition.z
      value: 0
      objectReference: {fileID: 0}
    - target: {fileID: -7552582706839291426, guid: ede9e1a400a9d4e49b8e611cd2b74ebe, type: 3}
      propertyPath: m_LocalRotation.w
      value: 1
      objectReference: {fileID: 0}
    - target: {fileID: -7552582706839291426, guid: ede9e1a400a9d4e49b8e611cd2b74ebe, type: 3}
      propertyPath: m_LocalRotation.x
      value: 0
      objectReference: {fileID: 0}
    - target: {fileID: -7552582706839291426, guid: ede9e1a400a9d4e49b8e611cd2b74ebe, type: 3}
      propertyPath: m_LocalRotation.y
      value: 0
      objectReference: {fileID: 0}
    - target: {fileID: -7552582706839291426, guid: ede9e1a400a9d4e49b8e611cd2b74ebe, type: 3}
      propertyPath: m_LocalRotation.z
      value: 0
      objectReference: {fileID: 0}
    - target: {fileID: -7552582706839291426, guid: ede9e1a400a9d4e49b8e611cd2b74ebe, type: 3}
      propertyPath: m_LocalEulerAnglesHint.x
      value: 0
      objectReference: {fileID: 0}
    - target: {fileID: -7552582706839291426, guid: ede9e1a400a9d4e49b8e611cd2b74ebe, type: 3}
      propertyPath: m_LocalEulerAnglesHint.y
      value: 0
      objectReference: {fileID: 0}
    - target: {fileID: -7552582706839291426, guid: ede9e1a400a9d4e49b8e611cd2b74ebe, type: 3}
      propertyPath: m_LocalEulerAnglesHint.z
      value: 0
      objectReference: {fileID: 0}
    m_RemovedComponents: []
    m_RemovedGameObjects: []
    m_AddedGameObjects: []
    m_AddedComponents:
    - targetCorrespondingSourceObject: {fileID: -8653719598885068355, guid: ede9e1a400a9d4e49b8e611cd2b74ebe, type: 3}
      insertIndex: -1
      addedObject: {fileID: 3182906361817717984}
  m_SourcePrefab: {fileID: 4843985084834002234, guid: ede9e1a400a9d4e49b8e611cd2b74ebe, type: 3}
--- !u!1 &7423142644789333766 stripped
GameObject:
  m_CorrespondingSourceObject: {fileID: -8653719598885068355, guid: ede9e1a400a9d4e49b8e611cd2b74ebe, type: 3}
  m_PrefabInstance: {fileID: 6981568124451974843}
  m_PrefabAsset: {fileID: 0}
--- !u!95 &3182906361817717984
Animator:
  serializedVersion: 5
  m_ObjectHideFlags: 0
  m_CorrespondingSourceObject: {fileID: 0}
  m_PrefabInstance: {fileID: 0}
  m_PrefabAsset: {fileID: 0}
  m_GameObject: {fileID: 7423142644789333766}
  m_Enabled: 1
  m_Avatar: {fileID: 0}
  m_Controller: {fileID: 9100000, guid: 940a9b5a69e06e940943297b0da7f840, type: 2}
  m_CullingMode: 0
  m_UpdateMode: 0
  m_ApplyRootMotion: 0
  m_LinearVelocityBlending: 0
  m_StabilizeFeet: 0
  m_WarningMessage: 
  m_HasTransformHierarchy: 1
  m_AllowConstantClipSamplingOptimization: 1
  m_KeepAnimatorStateOnDisable: 0
  m_WriteDefaultValuesOnDisable: 0
